Neural Network Packages in R
…
---
## Evaluation

```r
pred_data %>%
  mutate(
    island_pred = island_pred,
    .before = island,
  )
```

```
## # A tibble: 68 x 6
##    island_pred island    bill_length_mm[,1] bill_depth_mm[,… flipper_length_mm[…
##    <chr>       <fct>                  <dbl>            <dbl>               <dbl>
##  1 Dream       Dream                  1.31            1.14               -0.557 
##  2 Biscoe      Dream                 -1.93           -0.547              -1.67  
##  3 Biscoe      Biscoe                 2.15           -0.598               2.20  
##  4 Dream       Torgersen             -0.265           0.986              -0.408 
##  5 Biscoe      Biscoe                -1.08           -0.598              -1.30  
##  6 Dream       Dream                  1.44            0.526              -0.259 
##  7 Torgersen   Dream                 -0.618           1.50               -0.0351
##  8 Biscoe      Biscoe                 0.551          -1.88                0.710 
##  9 Dream       Torgersen             -1.27            1.09               -0.557 
## 10 Dream       Dream                 -0.210           0.0661             -1.45  
## # … with 58 more rows, and 1 more variable: body_mass_g <dbl[,1]>
```
…
